{
    "name": "WooCommerce",
    "alias": "woocommerce",
    "description": "",
    "version": "1.1.3",
    "category": "ecommerce",
    "keywords": [],
    "active": 1,
    "order": 0,
    "providers": [
        "Modules\\WooCommerce\\Providers\\Event",
        "Modules\\WooCommerce\\Providers\\Main"
    ],
    "aliases": {},
    "files": [
        "start.php"
    ],
    "requires": [],
    "settings": []
}
