{
    "name": "EmpresaDigital",
    "alias": "empresadigital",
    "description": "",
    "version": "1.0.0",
    "category": "payment-gateway",
    "keywords": [],
    "active": 1,
    "order": 0,
    "providers": [
        "Modules\\EmpresaDigital\\Providers\\EmpresaDigitalServiceProvider"
    ],
    "aliases": {},
    "files": [
        "start.php"
    ],
    "requires": [],
    "settings": []
}
